Contribute - CLD
…
          We can further tabulate the attributes of the node object into a workable dataframe, as such:

list_table <- tibble::tibble(
                 url = node %>% rvest::html_attr("href"),
                 name = node %>% rvest::html_text()
              )
list_table

## # A tibble: 772 × 2
## url                                       name
## <chr>                                     <chr>
## 1 /wiki/Collegio_unico                    Collegio Unico Nazionale
## 2 /wiki/Democrazia_Cristiana              Democrazia Cristiana
## 3 /wiki/Attilio_Piccioni                  Attilio Piccioni
## 4 /wiki/Maria_De_Unterrichter_Jervolino   Maria De Unterrichter Jervolino
## 5 /wiki/Giuseppe_Fuschini                 Giuseppe Fuschini
## 6 /wiki/Edoardo_Martino                   Edoardo Martino
## 7 /wiki/Fronte_Democratico_Popolare       Fronte Democratico Popolare
## 8 /wiki/Virgilio_Nasi                     Virgilio Nasi
## 9 /wiki/Rosa_Fazio                        Rosa Fazio
## 10 /wiki/Antonio_Giolitti                 Antonio Giolitti
## # … with 762 more rows

          Our new dataframe list_table contains the URLs and text attributes from each <a> node in the table. As you can see, in the previous code chunk, we introduced two additional functions: first) rvest::html_attr() to get specific attributes from a node and second) rvest::html_text() to get the text attached to a node. As you may infer, we could have also extracted the name by getting the title attribute, as such:
            
tibble::tibble(
    url = node %>% rvest::html_attr("href"),
    name = node %>% rvest::html_attr("title")
)

## # A tibble: 772 × 2
## url                                       name
## <chr>                                     <chr>
## 1 /wiki/Collegio_unico                    Collegio Unico Nazionale
## 2 /wiki/Democrazia_Cristiana              Democrazia Cristiana
## 3 /wiki/Attilio_Piccioni                  Attilio Piccioni
## 4 /wiki/Maria_De_Unterrichter_Jervolino   Maria De Unterrichter Jervolino
## 5 /wiki/Giuseppe_Fuschini                 Giuseppe Fuschini
## 6 /wiki/Edoardo_Martino                   Edoardo Martino
## 7 /wiki/Fronte_Democratico_Popolare       Fronte Democratico Popolare
## 8 /wiki/Virgilio_Nasi                     Virgilio Nasi
## 9 /wiki/Rosa_Fazio                        Rosa Fazio
## 10 /wiki/Antonio_Giolitti                 Antonio Giolitti
## # … with 762 more rows

          Getting HTML tables into R

          As we have seen, the data we are interested is located in a <table> node of the <div id="mw-content-text"> section. Fortunately, rvest has a means to easily parse an HTML table into a dataframe, that is: rvest::html_table().

parsed_html %>% rvest::html_table()

## [[1]]
## # A tibble: 1 × 2
## X1    X2
## <lgl> <chr>
##   1 NA    Questa voce  sull'argomento elezioni in Italia è solo un abbozzo.Contribuisci a migliorarla secondo le convenzioni di Wikipedia.
##
## [[2]]
## # A tibble: 570 × 3
##    Collegio                 Lista                       Eletto
##    <chr>                    <chr>                       <chr>
##  1 Collegio Unico Nazionale Democrazia Cristiana        Attilio Piccioni
##  2 Collegio Unico Nazionale Democrazia Cristiana        Maria De Unterrichter Jervolino
##  3 Collegio Unico Nazionale Democrazia Cristiana        Giuseppe Fuschini
##  4 Collegio Unico Nazionale Democrazia Cristiana        Edoardo Martino
##  5 Collegio Unico Nazionale Fronte Democratico Popolare Virgilio Nasi
##  6 Collegio Unico Nazionale Fronte Democratico Popolare Rosa Fazio
##  7 Collegio Unico Nazionale Fronte Democratico Popolare Antonio Giolitti
##  8 Collegio Unico Nazionale Fronte Democratico Popolare Silvio Paolucci
##  9 Collegio Unico Nazionale Unità Socialista            Ivan Matteo Lombardo
## 10 Collegio Unico Nazionale Unità Socialista            Roberto Tremelloni
## # … with 560 more rows
…
          This code retrieves all tables within our parsed_html object. As we remember from our exploration of the structure from the XPath, we are interested in the second table. We can extract it like this: 

parsed_html %>% rvest::html_table() %>%
      magrittr::extract2(2) # to extract table 2 from the nested list

## # A tibble: 570 × 3
##    Collegio                 Lista                       Eletto
##    <chr>                    <chr>                       <chr>
##  1 Collegio Unico Nazionale Democrazia Cristiana        Attilio Piccioni
##  2 Collegio Unico Nazionale Democrazia Cristiana        Maria De Unterrichter Jervolino
##  3 Collegio Unico Nazionale Democrazia Cristiana        Giuseppe Fuschini
##  4 Collegio Unico Nazionale Democrazia Cristiana        Edoardo Martino
##  5 Collegio Unico Nazionale Fronte Democratico Popolare Virgilio Nasi
##  6 Collegio Unico Nazionale Fronte Democratico Popolare Rosa Fazio
##  7 Collegio Unico Nazionale Fronte Democratico Popolare Antonio Giolitti
##  8 Collegio Unico Nazionale Fronte Democratico Popolare Silvio Paolucci
##  9 Collegio Unico Nazionale Unità Socialista            Ivan Matteo Lombardo
## 10 Collegio Unico Nazionale Unità Socialista            Roberto Tremelloni
## # … with 560 more rows

          This already looks a lot like the expected output for the legislature's term. If we think back at the first image in this page, we just miss the URL to each legislator's Wikipedia entry and number of the session. We can do this easily by changing the names of the variables with dplyr::rename(), merging these data with the list_table that contained the URLs, and finally creating a new column with the session name:

parsed_html %>% rvest::html_table() %>%
      magrittr::extract2(2) # to extract table 2 from the nested list
      dplyr::rename("name" = "Eletto", "constituency" = "Collegio", "party" = "Lista") %>% # change names
      dplyr::left_join(., list_table) %>% # join current df with tibble of <a> nodes by name
      dplyr::mutate(session = "1")

## Joining, by = "name"
## # A tibble: 572 × 5
## constituency                party                       name                            url                                   session
## <chr>                       <chr>                       <chr>                           <chr>                                 <chr>
## 1 Collegio Unico Nazionale  Democrazia Cristiana        Attilio Piccioni                /wiki/Attilio_Piccioni                1
## 2 Collegio Unico Nazionale  Democrazia Cristiana        Maria De Unterrichter Jervolino /wiki/Maria_De_Unterrichter_Jervolino 1
## 3 Collegio Unico Nazionale  Democrazia Cristiana        Giuseppe Fuschini               /wiki/Giuseppe_Fuschini               1
## 4 Collegio Unico Nazionale  Democrazia Cristiana        Edoardo Martino                 /wiki/Edoardo_Martino                 1
## 5 Collegio Unico Nazionale  Fronte Democratico Popolare Virgilio Nasi                   /wiki/Virgilio_Nasi                   1
## 6 Collegio Unico Nazionale  Fronte Democratico Popolare Rosa Fazio                      /wiki/Rosa_Fazio                      1
## 7 Collegio Unico Nazionale  Fronte Democratico Popolare Antonio Giolitti                /wiki/Antonio_Giolitti                1
## 8 Collegio Unico Nazionale  Fronte Democratico Popolare Silvio Paolucci                 /wiki/Silvio_Paolucci_(politico)      1
## 9 Collegio Unico Nazionale  Unità Socialista            Ivan Matteo Lombardo            /wiki/Ivan_Matteo_Lombardo            1
## 10 Collegio Unico Nazionale Unità Socialista            Roberto Tremelloni              /wiki/Roberto_Tremelloni              1
## # … with 562 more rows
…
